{
  "status": "SUCCESS",
  "message": "Success! Your request has been completed.",
  "data": {
    "items": [
      {
        "id": "fdd005b9-24e1-4533-aeeb-182f6c1c5d5a",
        "instituteCategoryId": "3d56d7f6-1f3a-45e4-88bd-48e9a9035d48",
        "instituteCategory": "Public Colleges (Government)",
        "name": "Dickinson Group",
        "slug": "dickinson-group",
        "photo": "https://loremflickr.com/1280/720/school?lock=7369647737142937",
        "contactEmail": "merlejaskolskiiii39@yahoo.com",
        "phoneNumber": "401-781-6591 x80384",
        "website": "https://hollow-outlaw.biz/",
        "country": "Bangladesh",
        "latitude": 80.673,
        "longitude": -141.4251,
        "createdAt": "2011-11-28T09:28:49.430Z",
        "updatedAt": "2011-11-28T09:28:49.430Z",
        "author": {
          "id": "9bc3b5c1-296a-4712-859e-f4283e8b0e2a",
          "name": "Organizer",
          "profilePic": "https://img.freepik.com/premium-vector/teacher-icon-avatar-sitting-table-education_934241-131.jpg"
        }
      },
      {
        "id": "62a6e458-3ed2-4d9d-b3e8-4b27f75c974b",
        "instituteCategoryId": "518b82a5-9f86-4c46-b20d-5fec38653ffa",
        "instituteCategory": "Polytechnic Institutes",
        "name": "Mitchell Inc",
        "slug": "mitchell-inc",
        "photo": "https://loremflickr.com/1280/720/school?lock=4189477528830026",
        "contactEmail": "hubertkuhn97@yahoo.com",
        "phoneNumber": "843-719-2992",
        "website": "https://unsightly-vibraphone.info",
        "country": "Bangladesh",
        "latitude": -2.7387,
        "longitude": -9.4316,
        "createdAt": "2018-07-04T18:46:21.617Z",
        "updatedAt": "2018-07-04T18:46:21.617Z",
        "author": {
          "id": "9bc3b5c1-296a-4712-859e-f4283e8b0e2a",
          "name": "Organizer",
          "profilePic": "https://img.freepik.com/premium-vector/teacher-icon-avatar-sitting-table-education_934241-131.jpg"
        }
      },
      {
        "id": "140afffa-7517-4e09-9933-1be608206e52",
        "instituteCategoryId": "f36b3c7e-e193-4cda-9086-70a57b1dff67",
        "instituteCategory": "Public Engineering Colleges",
        "name": "Hand - Jast",
        "slug": "hand-jast",
        "photo": "https://loremflickr.com/1280/720/school?lock=1601257128914227",
        "contactEmail": "kelliebahringer.schinner11@gmail.com",
        "phoneNumber": "(547) 806-6664",
        "website": "https://advanced-kit.biz/",
        "country": "Bangladesh",
        "latitude": -19.9031,
        "longitude": -18.4003,
        "createdAt": "2009-03-25T17:02:02.304Z",
        "updatedAt": "2009-03-25T17:02:02.304Z",
        "author": {
          "id": "9bc3b5c1-296a-4712-859e-f4283e8b0e2a",
          "name": "Organizer",
          "profilePic": "https://img.freepik.com/premium-vector/teacher-icon-avatar-sitting-table-education_934241-131.jpg"
        }
      },
      {
        "id": "d220537a-c3fc-405c-b67d-d960a86d7312",
        "instituteCategoryId": "f4a8ed2d-30d2-49be-8b9f-5a9177a5c1dd",
        "instituteCategory": "Business & Economics Universities",
        "name": "Wiza - Pfeffer",
        "slug": "wiza-pfeffer",
        "photo": "https://loremflickr.com/1280/720/school?lock=6503755180923803",
        "contactEmail": "terrencemarks.heidenreich98@hotmail.com",
        "phoneNumber": "742-323-6570 x38341",
        "website": "https://impressionable-sesame.biz",
        "country": "Bangladesh",
        "latitude": -68.7902,
        "longitude": -174.9231,
        "createdAt": "2006-03-20T23:28:33.550Z",
        "updatedAt": "2006-03-20T23:28:33.550Z",
        "author": {
          "id": "9bc3b5c1-296a-4712-859e-f4283e8b0e2a",
          "name": "Organizer",
          "profilePic": "https://img.freepik.com/premium-vector/teacher-icon-avatar-sitting-table-education_934241-131.jpg"
        }
      },
      {
        "id": "5e975a5c-2846-4691-95c6-a5a644702961",
        "instituteCategoryId": "3d56d7f6-1f3a-45e4-88bd-48e9a9035d48",
        "instituteCategory": "Public Colleges (Government)",
        "name": "Beahan - Klein",
        "slug": "beahan-klein",
        "photo": "https://loremflickr.com/1280/720/school?lock=6855524767200324",
        "contactEmail": "mariannelangworth_dooley@yahoo.com",
        "phoneNumber": "(241) 942-2251 x949",
        "website": "https://weighty-maintainer.biz",
        "country": "Bangladesh",
        "latitude": 31.7489,
        "longitude": 23.9896,
        "createdAt": "2023-02-16T15:15:34.618Z",
        "updatedAt": "2023-02-16T15:15:34.618Z",
        "author": {
          "id": "9bc3b5c1-296a-4712-859e-f4283e8b0e2a",
          "name": "Organizer",
          "profilePic": "https://img.freepik.com/premium-vector/teacher-icon-avatar-sitting-table-education_934241-131.jpg"
        }
      },
      {
        "id": "59fa809c-c78f-428f-9d3e-b8e7085c76d1",
        "instituteCategoryId": "db974255-4698-4f24-a1e2-7e22ed558115",
        "instituteCategory": "Islamic Universities",
        "name": "Graham LLC",
        "slug": "graham-llc",
        "photo": "https://loremflickr.com/1280/720/school?lock=3018860091279543",
        "contactEmail": "claytonfayphd.moore35@yahoo.com",
        "phoneNumber": "708.592.8380 x8171",
        "website": "https://corny-eggplant.net/",
        "country": "Bangladesh",
        "latitude": 6.8225,
        "longitude": 64.4961,
        "createdAt": "1989-04-19T03:01:29.073Z",
        "updatedAt": "1989-04-19T03:01:29.073Z",
        "author": {
          "id": "9bc3b5c1-296a-4712-859e-f4283e8b0e2a",
          "name": "Organizer",
          "profilePic": "https://img.freepik.com/premium-vector/teacher-icon-avatar-sitting-table-education_934241-131.jpg"
        }
      },
      {
        "id": "cf1ec1b7-8594-468f-9496-b89eb0ff5043",
        "instituteCategoryId": "0bb6a543-b905-4d53-8bd1-5163a81768eb",
        "instituteCategory": "Private Colleges (Non-Government)",
        "name": "Runte, Crona and Schmitt",
        "slug": "runte-crona-and-schmitt",
        "photo": "https://loremflickr.com/1280/720/school?lock=2255571299458790",
        "contactEmail": "kristinpadberg_bechtelar47@gmail.com",
        "phoneNumber": "966.769.8570 x2512",
        "website": "https://negligible-impact.net/",
        "country": "Bangladesh",
        "latitude": -52.618,
        "longitude": 175.0189,
        "createdAt": "2008-10-31T23:51:59.919Z",
        "updatedAt": "2008-10-31T23:51:59.919Z",
        "author": {
          "id": "9bc3b5c1-296a-4712-859e-f4283e8b0e2a",
          "name": "Organizer",
          "profilePic": "https://img.freepik.com/premium-vector/teacher-icon-avatar-sitting-table-education_934241-131.jpg"
        }
      },
      {
        "id": "4b9cb523-c3e7-4d30-a151-237fb222a4d0",
        "instituteCategoryId": "79f97bfb-bc76-4fb9-8dbf-5ff68a0aab59",
        "instituteCategory": "Private Medical Colleges",
        "name": "Hane Inc",
        "slug": "hane-inc",
        "photo": "https://loremflickr.com/1280/720/school?lock=8043084140428765",
        "contactEmail": "dorasimonis.gutmann94@gmail.com",
        "phoneNumber": "896.763.9123 x8797",
        "website": "https://comfortable-overload.info/",
        "country": "Bangladesh",
        "latitude": 86.2826,
        "longitude": 61.202,
        "createdAt": "2015-01-22T01:17:11.754Z",
        "updatedAt": "2015-01-22T01:17:11.754Z",
        "author": {
          "id": "9bc3b5c1-296a-4712-859e-f4283e8b0e2a",
          "name": "Organizer",
          "profilePic": "https://img.freepik.com/premium-vector/teacher-icon-avatar-sitting-table-education_934241-131.jpg"
        }
      },
      {
        "id": "d2531cf1-1036-4222-a943-9b23a255e52e",
        "instituteCategoryId": "5dda0694-1dbf-4e5a-b449-f46d0da495d8",
        "instituteCategory": "Medical Universities",
        "name": "Gutmann LLC",
        "slug": "gutmann-llc",
        "photo": "https://loremflickr.com/1280/720/school?lock=7037117246664051",
        "contactEmail": "hazelhane96@gmail.com",
        "phoneNumber": "690-602-4473 x116",
        "website": "https://gorgeous-encouragement.name/",
        "country": "Bangladesh",
        "latitude": 63.344,
        "longitude": 142.0092,
        "createdAt": "1975-10-07T01:35:46.591Z",
        "updatedAt": "1975-10-07T01:35:46.591Z",
        "author": {
          "id": "9bc3b5c1-296a-4712-859e-f4283e8b0e2a",
          "name": "Organizer",
          "profilePic": "https://img.freepik.com/premium-vector/teacher-icon-avatar-sitting-table-education_934241-131.jpg"
        }
      },
      {
        "id": "22202efb-70c5-4b4d-b2b8-4561b6289ae0",
        "instituteCategoryId": "79f97bfb-bc76-4fb9-8dbf-5ff68a0aab59",
        "instituteCategory": "Private Medical Colleges",
        "name": "Towne - Grimes",
        "slug": "towne-grimes",
        "photo": "https://loremflickr.com/1280/720/school?lock=7463933690716280",
        "contactEmail": "sherylmayertv_kemmer@hotmail.com",
        "phoneNumber": "539-533-1319",
        "website": "https://pale-integer.name/",
        "country": "Bangladesh",
        "latitude": 41.6998,
        "longitude": -137.3738,
        "createdAt": "1993-09-28T18:01:55.158Z",
        "updatedAt": "1993-09-28T18:01:55.158Z",
        "author": {
          "id": "9bc3b5c1-296a-4712-859e-f4283e8b0e2a",
          "name": "Organizer",
          "profilePic": "https://img.freepik.com/premium-vector/teacher-icon-avatar-sitting-table-education_934241-131.jpg"
        }
      }
    ]
  },
  "_links": {
    "self": { "href": "/api/v0/public/institutes", "method": "GET" },
    "getById": { "href": "/api/v0/public/institutes/:id", "method": "GET" }
  },
  "pagination": {
    "totalRecords": 199,
    "currentPage": 1,
    "previousPage": null,
    "nextPage": 2
  }
}
